\relax 
\providecommand\hyper@newdestlabel[2]{}
\providecommand\HyperFirstAtBeginDocument{\AtBeginDocument}
\HyperFirstAtBeginDocument{\ifx\hyper@anchor\@undefined
\global\let\oldcontentsline\contentsline
\gdef\contentsline#1#2#3#4{\oldcontentsline{#1}{#2}{#3}}
\global\let\oldnewlabel\newlabel
\gdef\newlabel#1#2{\newlabelxx{#1}#2}
\gdef\newlabelxx#1#2#3#4#5#6{\oldnewlabel{#1}{{#2}{#3}}}
\AtEndDocument{\ifx\hyper@anchor\@undefined
\let\contentsline\oldcontentsline
\let\newlabel\oldnewlabel
\fi}
\fi}
\global\let\hyper@last\relax 
\gdef\HyperFirstAtBeginDocument#1{#1}
\providecommand\HyField@AuxAddToFields[1]{}
\providecommand\HyField@AuxAddToCoFields[2]{}
\providecommand \oddpage@label [2]{}
\@writefile{toc}{\contentsline {paragraph}{A research report}{i}{section*.1}\protected@file@percent }
\@writefile{toc}{\contentsline {paragraph}{}{ii}{section*.2}\protected@file@percent }
\@writefile{toc}{\contentsline {paragraph}{}{ii}{section*.3}\protected@file@percent }
\@writefile{toc}{\contentsline {paragraph}{}{ii}{section*.4}\protected@file@percent }
\citation{johnson1998exploring}
\@writefile{toc}{\contentsline {paragraph}{}{iii}{section*.5}\protected@file@percent }
\@writefile{toc}{\contentsline {paragraph}{}{iii}{section*.6}\protected@file@percent }
\citation{shavers2016hiding}
\citation{levy2010using}
\@writefile{toc}{\contentsline {chapter}{\numberline {1}Introduction}{1}{chapter.1}\protected@file@percent }
\@writefile{lof}{\addvspace {10\p@ }}
\@writefile{lot}{\addvspace {10\p@ }}
\@writefile{loa}{\addvspace {10\p@ }}
\@writefile{toc}{\contentsline {section}{\numberline {1.1}Introduction}{1}{section.1.1}\protected@file@percent }
\@writefile{toc}{\contentsline {paragraph}{}{1}{section*.11}\protected@file@percent }
\@writefile{toc}{\contentsline {section}{\numberline {1.2}Background of the research}{1}{section.1.2}\protected@file@percent }
\@writefile{toc}{\contentsline {paragraph}{}{1}{section*.12}\protected@file@percent }
\@writefile{toc}{\contentsline {paragraph}{}{1}{section*.13}\protected@file@percent }
\@writefile{toc}{\contentsline {paragraph}{}{1}{section*.14}\protected@file@percent }
\@writefile{toc}{\contentsline {section}{\numberline {1.3}Objective of the research}{1}{section.1.3}\protected@file@percent }
\@writefile{toc}{\contentsline {paragraph}{}{1}{section*.15}\protected@file@percent }
\@writefile{toc}{\contentsline {paragraph}{}{2}{section*.16}\protected@file@percent }
\@writefile{lof}{\contentsline {figure}{\numberline {1.1}{\ignorespaces Steganography process diagram.}}{2}{figure.1.1}\protected@file@percent }
\citation{wiki:Steganography}
\citation{petitcolas1999information}
\citation{wiki:Steganography}
\citation{fridrich2004searching}
\@writefile{toc}{\contentsline {chapter}{\numberline {2}Theory}{3}{chapter.2}\protected@file@percent }
\@writefile{lof}{\addvspace {10\p@ }}
\@writefile{lot}{\addvspace {10\p@ }}
\@writefile{loa}{\addvspace {10\p@ }}
\@writefile{toc}{\contentsline {section}{\numberline {2.1}Introduction}{3}{section.2.1}\protected@file@percent }
\@writefile{toc}{\contentsline {paragraph}{}{3}{section*.17}\protected@file@percent }
\@writefile{toc}{\contentsline {section}{\numberline {2.2}History of Steganograpy}{3}{section.2.2}\protected@file@percent }
\@writefile{toc}{\contentsline {paragraph}{}{3}{section*.18}\protected@file@percent }
\@writefile{toc}{\contentsline {paragraph}{}{3}{section*.19}\protected@file@percent }
\citation{kaur2016survey}
\@writefile{lof}{\contentsline {figure}{\numberline {2.1}{\ignorespaces A chart from Johannes Trithemius's Steganographia}}{4}{figure.2.1}\protected@file@percent }
\@writefile{toc}{\contentsline {section}{\numberline {2.3}Steganography in Digital Media}{4}{section.2.3}\protected@file@percent }
\@writefile{toc}{\contentsline {subsection}{\numberline {2.3.1}Text Steganography}{4}{subsection.2.3.1}\protected@file@percent }
\@writefile{toc}{\contentsline {paragraph}{}{4}{section*.20}\protected@file@percent }
\citation{kaur2016survey}
\@writefile{lof}{\contentsline {figure}{\numberline {2.2}{\ignorespaces Text Steganography}}{5}{figure.2.2}\protected@file@percent }
\@writefile{toc}{\contentsline {subsection}{\numberline {2.3.2}Image Steganography}{5}{subsection.2.3.2}\protected@file@percent }
\@writefile{toc}{\contentsline {paragraph}{}{5}{section*.21}\protected@file@percent }
\@writefile{lof}{\contentsline {figure}{\numberline {2.3}{\ignorespaces Image Steganography}}{5}{figure.2.3}\protected@file@percent }
\@writefile{toc}{\contentsline {subsection}{\numberline {2.3.3}Network Steganography}{5}{subsection.2.3.3}\protected@file@percent }
\@writefile{toc}{\contentsline {paragraph}{}{5}{section*.22}\protected@file@percent }
\@writefile{lof}{\contentsline {figure}{\numberline {2.4}{\ignorespaces Network Steganography}}{5}{figure.2.4}\protected@file@percent }
\@writefile{toc}{\contentsline {subsection}{\numberline {2.3.4}Audio Steganography}{5}{subsection.2.3.4}\protected@file@percent }
\@writefile{toc}{\contentsline {paragraph}{}{5}{section*.23}\protected@file@percent }
\citation{juneja2013improved}
\citation{bender1996techniques}
\citation{singh2016comparative}
\@writefile{lof}{\contentsline {figure}{\numberline {2.5}{\ignorespaces Audio Steganography}}{6}{figure.2.5}\protected@file@percent }
\@writefile{toc}{\contentsline {subsection}{\numberline {2.3.5}Video Steganography}{6}{subsection.2.3.5}\protected@file@percent }
\@writefile{toc}{\contentsline {paragraph}{}{6}{section*.24}\protected@file@percent }
\@writefile{lof}{\contentsline {figure}{\numberline {2.6}{\ignorespaces Video Steganography}}{6}{figure.2.6}\protected@file@percent }
\@writefile{toc}{\contentsline {section}{\numberline {2.4}Methods of Audio Steganography}{6}{section.2.4}\protected@file@percent }
\@writefile{toc}{\contentsline {section}{\numberline {2.5}Comparison of techniques}{7}{section.2.5}\protected@file@percent }
\@writefile{lot}{\contentsline {table}{\numberline {2.1}{\ignorespaces Comparison of audio steganography techniques}}{7}{table.2.1}\protected@file@percent }
\newlabel{Comparison of audio steganography techniques}{{2.1}{7}{Comparison of audio steganography techniques}{table.2.1}{}}
\@writefile{toc}{\contentsline {section}{\numberline {2.6}General Steganography Algorithm}{7}{section.2.6}\protected@file@percent }
\@writefile{toc}{\contentsline {subsection}{\numberline {2.6.1}Embedding Process}{8}{subsection.2.6.1}\protected@file@percent }
\@writefile{loa}{\contentsline {algocf}{\numberline {1}{\ignorespaces Generic Steganography Embedding Process}}{8}{algocf.1}\protected@file@percent }
\@writefile{toc}{\contentsline {subsection}{\numberline {2.6.2}Extracting Process}{8}{subsection.2.6.2}\protected@file@percent }
\@writefile{loa}{\contentsline {algocf}{\numberline {2}{\ignorespaces Generic Steganography Extracting Process}}{8}{algocf.2}\protected@file@percent }
\citation{WAVWikip39:online}
\citation{WAVWikip39:online}
\@writefile{toc}{\contentsline {chapter}{\numberline {3}Proposed System Model}{9}{chapter.3}\protected@file@percent }
\@writefile{lof}{\addvspace {10\p@ }}
\@writefile{lot}{\addvspace {10\p@ }}
\@writefile{loa}{\addvspace {10\p@ }}
\@writefile{toc}{\contentsline {section}{\numberline {3.1}Introduction}{9}{section.3.1}\protected@file@percent }
\@writefile{toc}{\contentsline {paragraph}{}{9}{section*.25}\protected@file@percent }
\@writefile{toc}{\contentsline {section}{\numberline {3.2}WAV File structure}{9}{section.3.2}\protected@file@percent }
\@writefile{toc}{\contentsline {paragraph}{}{9}{section*.26}\protected@file@percent }
\@writefile{toc}{\contentsline {paragraph}{}{9}{section*.27}\protected@file@percent }
\@writefile{toc}{\contentsline {paragraph}{}{9}{section*.28}\protected@file@percent }
\@writefile{lof}{\contentsline {figure}{\numberline {3.1}{\ignorespaces The canonical WAV format}}{10}{figure.3.1}\protected@file@percent }
\@writefile{toc}{\contentsline {section}{\numberline {3.3}Proposed Approach}{10}{section.3.3}\protected@file@percent }
\@writefile{toc}{\contentsline {subsection}{\numberline {3.3.1}Approach}{10}{subsection.3.3.1}\protected@file@percent }
\@writefile{toc}{\contentsline {paragraph}{}{10}{section*.29}\protected@file@percent }
\@writefile{lof}{\contentsline {figure}{\numberline {3.2}{\ignorespaces LSB Method}}{11}{figure.3.2}\protected@file@percent }
\@writefile{toc}{\contentsline {paragraph}{}{11}{section*.30}\protected@file@percent }
\@writefile{lof}{\contentsline {figure}{\numberline {3.3}{\ignorespaces Modified LSB Method}}{11}{figure.3.3}\protected@file@percent }
\@writefile{toc}{\contentsline {paragraph}{}{11}{section*.31}\protected@file@percent }
\@writefile{toc}{\contentsline {subsection}{\numberline {3.3.2}Embedding Process}{12}{subsection.3.3.2}\protected@file@percent }
\@writefile{lof}{\contentsline {figure}{\numberline {3.4}{\ignorespaces Embedding Process}}{12}{figure.3.4}\protected@file@percent }
\@writefile{toc}{\contentsline {subsection}{\numberline {3.3.3}Extracting Process}{13}{subsection.3.3.3}\protected@file@percent }
\@writefile{lof}{\contentsline {figure}{\numberline {3.5}{\ignorespaces Extracting Process}}{13}{figure.3.5}\protected@file@percent }
\@writefile{toc}{\contentsline {subsection}{\numberline {3.3.4}Embedding Algorithm}{14}{subsection.3.3.4}\protected@file@percent }
\@writefile{loa}{\contentsline {algocf}{\numberline {3}{\ignorespaces Proposed Embedding Approach}}{14}{algocf.3}\protected@file@percent }
\newlabel{Proposed Embedding Approach}{{3}{14}{Embedding Algorithm}{algocf.3}{}}
\@writefile{toc}{\contentsline {subsection}{\numberline {3.3.5}Extracting Algorithm}{14}{subsection.3.3.5}\protected@file@percent }
\@writefile{loa}{\contentsline {algocf}{\numberline {4}{\ignorespaces Proposed Extracting Approach}}{14}{algocf.4}\protected@file@percent }
\newlabel{Proposed Extracting Approach}{{4}{14}{Extracting Algorithm}{algocf.4}{}}
\citation{Steganog72:online}
\@writefile{toc}{\contentsline {chapter}{\numberline {4}Experiments \& Results}{15}{chapter.4}\protected@file@percent }
\@writefile{lof}{\addvspace {10\p@ }}
\@writefile{lot}{\addvspace {10\p@ }}
\@writefile{loa}{\addvspace {10\p@ }}
\@writefile{toc}{\contentsline {section}{\numberline {4.1}Introduction}{15}{section.4.1}\protected@file@percent }
\@writefile{toc}{\contentsline {paragraph}{}{15}{section*.32}\protected@file@percent }
\@writefile{toc}{\contentsline {section}{\numberline {4.2}Experimenting Application}{15}{section.4.2}\protected@file@percent }
\@writefile{toc}{\contentsline {paragraph}{}{15}{section*.33}\protected@file@percent }
\@writefile{toc}{\contentsline {subsection}{\numberline {4.2.1}Upload Career window}{15}{subsection.4.2.1}\protected@file@percent }
\@writefile{toc}{\contentsline {paragraph}{}{15}{section*.34}\protected@file@percent }
\@writefile{lof}{\contentsline {figure}{\numberline {4.1}{\ignorespaces Upload Career window}}{15}{figure.4.1}\protected@file@percent }
\@writefile{toc}{\contentsline {subsection}{\numberline {4.2.2}Embed window}{16}{subsection.4.2.2}\protected@file@percent }
\@writefile{toc}{\contentsline {paragraph}{}{16}{section*.35}\protected@file@percent }
\@writefile{lof}{\contentsline {figure}{\numberline {4.2}{\ignorespaces Embed window}}{16}{figure.4.2}\protected@file@percent }
\@writefile{toc}{\contentsline {subsection}{\numberline {4.2.3}Extract window}{16}{subsection.4.2.3}\protected@file@percent }
\@writefile{toc}{\contentsline {paragraph}{}{16}{section*.36}\protected@file@percent }
\@writefile{lof}{\contentsline {figure}{\numberline {4.3}{\ignorespaces Extract window}}{16}{figure.4.3}\protected@file@percent }
\@writefile{toc}{\contentsline {subsection}{\numberline {4.2.4}Save File window}{16}{subsection.4.2.4}\protected@file@percent }
\@writefile{toc}{\contentsline {paragraph}{}{16}{section*.37}\protected@file@percent }
\@writefile{lof}{\contentsline {figure}{\numberline {4.4}{\ignorespaces Extract window}}{17}{figure.4.4}\protected@file@percent }
\@writefile{toc}{\contentsline {section}{\numberline {4.3}Experimenting Environment}{17}{section.4.3}\protected@file@percent }
\@writefile{toc}{\contentsline {paragraph}{}{17}{section*.38}\protected@file@percent }
\@writefile{lot}{\contentsline {table}{\numberline {4.1}{\ignorespaces Experimenting Environment}}{17}{table.4.1}\protected@file@percent }
\newlabel{Experimenting Environment}{{4.1}{17}{Experimenting Environment}{table.4.1}{}}
\@writefile{toc}{\contentsline {section}{\numberline {4.4}Evaluating of results}{17}{section.4.4}\protected@file@percent }
\@writefile{toc}{\contentsline {subsection}{\numberline {4.4.1}Comparison of Result}{17}{subsection.4.4.1}\protected@file@percent }
\@writefile{toc}{\contentsline {paragraph}{}{17}{section*.39}\protected@file@percent }
\@writefile{lot}{\contentsline {table}{\numberline {4.2}{\ignorespaces Comparison of results}}{18}{table.4.2}\protected@file@percent }
\newlabel{Comparison of results}{{4.2}{18}{Comparison of results}{table.4.2}{}}
\@writefile{toc}{\contentsline {subsection}{\numberline {4.4.2}Comparing input and output career spectrum}{18}{subsection.4.4.2}\protected@file@percent }
\@writefile{toc}{\contentsline {paragraph}{}{18}{section*.40}\protected@file@percent }
\@writefile{lof}{\contentsline {figure}{\numberline {4.5}{\ignorespaces Original inputted career signals}}{18}{figure.4.5}\protected@file@percent }
\@writefile{lof}{\contentsline {figure}{\numberline {4.6}{\ignorespaces Outputted stego career signals}}{19}{figure.4.6}\protected@file@percent }
\@writefile{toc}{\contentsline {section}{\numberline {4.5}Conclusion}{19}{section.4.5}\protected@file@percent }
\@writefile{toc}{\contentsline {paragraph}{}{19}{section*.41}\protected@file@percent }
\bibstyle{plain}
\bibdata{Bibliography}
\@writefile{toc}{\contentsline {chapter}{\numberline {5}Conclusion \& Future Direction}{20}{chapter.5}\protected@file@percent }
\@writefile{lof}{\addvspace {10\p@ }}
\@writefile{lot}{\addvspace {10\p@ }}
\@writefile{loa}{\addvspace {10\p@ }}
\@writefile{toc}{\contentsline {section}{\numberline {5.1}Conclusion}{20}{section.5.1}\protected@file@percent }
\@writefile{toc}{\contentsline {paragraph}{}{20}{section*.42}\protected@file@percent }
\@writefile{toc}{\contentsline {section}{\numberline {5.2}Limitation}{20}{section.5.2}\protected@file@percent }
\@writefile{toc}{\contentsline {paragraph}{}{20}{section*.43}\protected@file@percent }
\@writefile{toc}{\contentsline {section}{\numberline {5.3}Future work direction}{20}{section.5.3}\protected@file@percent }
\@writefile{toc}{\contentsline {paragraph}{}{20}{section*.44}\protected@file@percent }
\bibcite{HidingIm56:online}{1}
\bibcite{NetworkS18:online}{2}
\bibcite{Steganog79:online}{3}
\bibcite{Steganog72:online}{4}
\bibcite{WAVWikip39:online}{5}
\bibcite{10.1007/978-3-319-69266-1_21}{6}
\bibcite{bender1996techniques}{7}
\bibcite{fridrich2004searching}{8}
\bibcite{johnson1998exploring}{9}
\bibcite{juneja2013improved}{10}
\bibcite{kaur2016survey}{11}
\bibcite{levy2010using}{12}
\bibcite{article}{13}
\bibcite{petitcolas1999information}{14}
\bibcite{shavers2016hiding}{15}
\bibcite{singh2016comparative}{16}
\bibcite{wiki:Steganography}{17}
